[gd_scene load_steps=3 format=2]

[ext_resource path="res://custom/avatar.tscn" type="PackedScene" id=1]
[ext_resource path="res://ui/avatar_customizer.gd" type="Script" id=2]

[node name="HBoxContainer" type="Node2D"]
script = ExtResource( 2 )

[node name="ColorPicker" type="ColorPicker" parent="."]
margin_left = 369.0
margin_top = 108.0
margin_right = 677.0
margin_bottom = 570.0

[node name="avatar" parent="." instance=ExtResource( 1 )]
position = Vector2( 269, 293 )
scale = Vector2( 3, 3 )

[node name="ItemList" type="OptionButton" parent="."]
margin_left = 356.0
margin_top = 21.0
margin_right = 678.0
margin_bottom = 74.0
text = "select"
